Some serious data massaging
…
Other ways to read data

read_csv("my.csv") # comma-separated values . for decimal
read_csv2() # semi-colon separated , for decimal
read_delim() # choices for delimiter, etc.
read_fwf() # fixed width
# many more options: see package readr

Now we can take a peek at the data

# this will show only what fits on the screen
sp

# A tibble: 26 × 5
   speciescode           species               genus         family      short…¹
   <chr>                 <chr>                 <chr>         <chr>       <chr>  
 1 Agrostis capillaris   Agrostis capillaris   Agrostis      Poaceae     Ac     
 2 Anthoxanthum odoratum Anthoxanthum odoratum Anthoxanthum  Poaceae     Ao     
 3 Arrhenatherum elatius Arrhenatherum elatius Arrhenatherum Poaceae     Ae     
 4 Cerastium fontanum    Cerastium fontanum    Cerastium     Caryophyll… Cf     
 5 Epilobium hirsutum    Epilobium hirsutum    Epilobium     Onagraceae  Eh     
 6 Festuca arundinacea   Festuca rubra         Festuca       Poaceae     Fa     
 7 Festuca rubra         Festuca rubra         Festuca       Poaceae     Fr     
 8 Festuca rubra agg.    Festuca rubra         Festuca       Poaceae     Fr     
 9 Holcus lanatus        Holcus lanatus        Holcus        Poaceae     Hl     
10 Hypochoeris radicata  Hypochaeris radicata  Hypochaeris   Asteraceae  Hr     
# … with 16 more rows, and abbreviated variable name ¹​shortname
…
Selecting columns

The command select is used to select only certain columns. Because we do not need all the 14 columns, we are going to trim the data and overwrite it.

The “pipe” command %>% (Ctrl+Shift+M) takes the tibble on the left as the input for the function on the right: func(x) is equivalent to x %>% func(). When writing code for a long pipeline, put each command in its own line, ending the line with the pipe. This allows to add/remove parts of the pipeline quickly, as well as to have inline comments to document the code.

dt <- dt %>% # select only columns we will need
  select(label, treatment, country, `species name`, 
         subset, `Biomass (g dryweight)`, timing)
dt

# A tibble: 10,480 × 7
   label    treatment country `species name` subset  Biomass (g dryweig…¹ timing
   <chr>    <chr>     <chr>   <chr>          <chr>                  <dbl> <chr> 
 1 C-12478i C         BE      community      invader                 30.4 res   
 2 C-12i    C         BE      community      invader                 41.1 res   
 3 C-13478i C         BE      community      invader                 28.6 res   
 4 C-134abi C         BE      community      invader                 52.3 res   
 5 C-13567j C         BE      community      invader                103.  res   
 6 C-138acj C         BE      community      invader                 76.4 res   
 7 C-147bdi C         BE      community      invader                 46.1 res   
 8 C-17i    C         BE      community      invader                 70.3 res   
 9 C-23568j C         BE      community      invader                 64.5 res   
10 C-2357cj C         BE      community      invader                 79.2 res   
# … with 10,470 more rows, and abbreviated variable name
#   ¹​`Biomass (g dryweight)`
…
Renaming columns

To make column names shorter or easier to type, use rename

dt <- dt %>% 
  rename(biomass = `Biomass (g dryweight)`, 
         species_name = `species name`)
dt

# A tibble: 10,480 × 7
   label    treatment country species_name subset  biomass timing
   <chr>    <chr>     <chr>   <chr>        <chr>     <dbl> <chr> 
 1 C-12478i C         BE      community    invader    30.4 res   
 2 C-12i    C         BE      community    invader    41.1 res   
 3 C-13478i C         BE      community    invader    28.6 res   
 4 C-134abi C         BE      community    invader    52.3 res   
 5 C-13567j C         BE      community    invader   103.  res   
 6 C-138acj C         BE      community    invader    76.4 res   
 7 C-147bdi C         BE      community    invader    46.1 res   
 8 C-17i    C         BE      community    invader    70.3 res   
 9 C-23568j C         BE      community    invader    64.5 res   
10 C-2357cj C         BE      community    invader    79.2 res   
# … with 10,470 more rows
…
# A tibble: 2 × 1
  treatment
  <chr>    
1 C        
2 D        

We can also check which mesocosms (label) are represented:

dt1 %>% 
  select(label) %>% 
  distinct()

# A tibble: 71 × 1
   label   
   <chr>   
 1 C-1     
 2 C-123   
 3 C-123567
 4 C-124678
 5 C-1258cd
 6 C-134578
 7 C-134abc
 8 C-1358ac
 9 C-1467bd
10 C-148   
# … with 61 more rows

Counting

We want to check how many times a species has been found in each treatment. We want to produce a table with a count for each species/treatment. We can use count() to get the job done:

dt1 %>% 
  count(species_name, treatment)

# A tibble: 24 × 3
   species_name          treatment     n
   <chr>                 <chr>     <int>
 1 Anthoxanthum odoratum C            11
 2 Anthoxanthum odoratum D             9
 3 Dactylis glomerata    C            10
 4 Dactylis glomerata    D             9
 5 Epilobium hirsutum    C            11
 6 Epilobium hirsutum    D             6
 7 Festuca rubra         C            11
 8 Festuca rubra         D            11
 9 Holcus lanatus        C            11
10 Holcus lanatus        D            11
# … with 14 more rows

Similarly, we can count how many species are present at the end of the experiment for each mesocosm. To sort the table from the most speciose to the least speciose, we use arrange:

dt1 %>% 
  count(label)

# A tibble: 71 × 2
   label        n
   <chr>    <int>
 1 C-1          1
 2 C-123        3
 3 C-123567     6
 4 C-124678     6
 5 C-1258cd     6
 6 C-134578     6
 7 C-134abc     5
 8 C-1358ac     5
 9 C-1467bd     5
10 C-148        3
# … with 61 more rows

dt1 %>% 
  count(label) %>% 
  arrange(desc(n)) # desc(x) for descending order

# A tibble: 71 × 2
   label        n
   <chr>    <int>
 1 C-123567     6
 2 C-124678     6
 3 C-1258cd     6
 4 C-134578     6
 5 C-234568     6
 6 C-2357ac     6
 7 C-2468ad     6
 8 C-567abc     6
 9 D-1258cd     6
10 D-2357ac     6
# … with 61 more rows
Pivoting

The data is in tidy form:

Each variable is in its own column

Each observation is in its own row

Tidy data (aka “longer” format) is great for computing, plotting, and manipulation. It is however not great for human consumption. Sometimes we want to produce tables for manuscripts or presentations that are in “wider” format. We can use pivot_longer and pivot_wider to accomplish these transformations (back and forth). For example, create a table specifying how many times each species is present in each treatment:

# this is in tidy (longer) format
dt1 %>% 
  count(species_name, treatment)

# A tibble: 24 × 3
   species_name          treatment     n
   <chr>                 <chr>     <int>
 1 Anthoxanthum odoratum C            11
 2 Anthoxanthum odoratum D             9
 3 Dactylis glomerata    C            10
 4 Dactylis glomerata    D             9
 5 Epilobium hirsutum    C            11
 6 Epilobium hirsutum    D             6
 7 Festuca rubra         C            11
 8 Festuca rubra         D            11
 9 Holcus lanatus        C            11
10 Holcus lanatus        D            11
# … with 14 more rows
…
Similarly, pivot_longer turns wider data into tidy:

# go back and forth
dt1 %>% 
  count(species_name, treatment) %>% 
  # from tidy to wider
  pivot_wider(names_from = treatment, values_from = n) %>% 
  # from wide to tidy
  pivot_longer(names_to = "treatment", values_to = "biomass", cols = c(C, D))

# A tibble: 24 × 3
   species_name          treatment biomass
   <chr>                 <chr>       <int>
 1 Anthoxanthum odoratum C              11
 2 Anthoxanthum odoratum D               9
 3 Dactylis glomerata    C              10
 4 Dactylis glomerata    D               9
 5 Epilobium hirsutum    C              11
 6 Epilobium hirsutum    D               6
 7 Festuca rubra         C              11
 8 Festuca rubra         D              11
 9 Holcus lanatus        C              11
10 Holcus lanatus        D              11
# … with 14 more rows
…
mutate creates a new column based on the contents of other columns; you can apply mutate by group

summarise creates summaries for the data, producing a new table. Typically, the functions you apply take a vector as input (e.g., all the biomasses in a treatment) and return a single value (e.g., the average biomass for the treatment)

The ability to work on grouped data is one of the most useful features of tidyverse. We are going examine an example of mutate and one of summarise.

dt2 <- dt2 %>% 
  # this adds an invisible column specifying group structure
  group_by(label, treatment) %>% 
  # mutate is used to create a new column that is a function of the 
  # current columns
  mutate(community_label = paste(sort(shortname), collapse = "-"))
dt2

# A tibble: 193 × 6
# Groups:   label, treatment [67]
   label    treatment species               shortname biomass community_label   
   <chr>    <chr>     <chr>                 <chr>       <dbl> <chr>             
 1 C-1      C         Anthoxanthum odoratum Ao          18.8  Ao                
 2 C-123    C         Anthoxanthum odoratum Ao           8.63 Ao-Fr             
 3 C-123    C         Festuca rubra         Fr           3.08 Ao-Fr             
 4 C-123567 C         Anthoxanthum odoratum Ao           3.3  Ao-Fr-Ra-Rua-Sg   
 5 C-123567 C         Festuca rubra         Fr           1.01 Ao-Fr-Ra-Rua-Sg   
 6 C-123567 C         Ranunculus acris      Ra           1.73 Ao-Fr-Ra-Rua-Sg   
 7 C-123567 C         Rumex acetosa         Rua          1.67 Ao-Fr-Ra-Rua-Sg   
 8 C-123567 C         Stellaria graminea    Sg           1.46 Ao-Fr-Ra-Rua-Sg   
 9 C-124678 C         Anthoxanthum odoratum Ao           3.59 Ao-Eh-Fr-Hl-Ra-Rua
10 C-124678 C         Epilobium hirsutum    Eh           1.08 Ao-Eh-Fr-Hl-Ra-Rua
# … with 183 more rows
…
Note that in many cases the control treatment yields higher biomass. To have a more straightforward visualization, we can find the total biomass per mesocosm/treatment and plot the values for each community:

total_biom <- dt2 %>% 
  group_by(label, community_label, treatment) %>% 
  # total biomass per mesocosm
  summarise(biomass = sum(biomass), 
            nsp = n(), # total num species in community
            .groups = "drop") %>% 
  # now make a table with total biom for C and D in separate cols
  select(community_label, treatment, biomass, nsp) %>% 
  pivot_wider(names_from = treatment, values_from = biomass)
total_biom

# A tibble: 41 × 4
   community_label      nsp     C     D
   <chr>              <int> <dbl> <dbl>
 1 Ao                     1 18.8   4.83
 2 Ao-Fr                  2 11.7   4.13
 3 Ao-Fr-Ra-Rua-Sg        5  9.17 NA   
 4 Ao-Eh-Fr-Hl-Ra-Rua     6 26.0  NA   
 5 Ao-Eh-Fr-Lc-Sg-Td      6 49.4  21.8 
 6 Ao-Eh-Hl-Rua-Sg        5 16.2  NA   
 7 Ao-Hl-Lc-Tp            4 16.4  38.7 
 8 Ao-Eh-Lc-Sg            4  6.14 NA   
 9 Ao-Hl-Ra-Rua-Td        5 23.3  NA   
10 Ao-Eh-Hl               3 20.5   9.75
# … with 31 more rows
…
