Some serious data massaging
…
Other ways to read data

read_csv("my.csv") # comma-separated values . for decimal
read_csv2() # semi-colon separated , for decimal
read_delim() # choices for delimiter, etc.
read_fwf() # fixed width
# many more options: see package readr

Now we can take a peek at the data

# this will show only what fits on the screen
sp

# A tibble: 26 × 4
   speciescode           species               genus         family         
   <chr>                 <chr>                 <chr>         <chr>          
 1 Agrostis capillaris   Agrostis capillaris   Agrostis      Poaceae        
 2 Anthoxanthum odoratum Anthoxanthum odoratum Anthoxanthum  Poaceae        
 3 Arrhenatherum elatius Arrhenatherum elatius Arrhenatherum Poaceae        
 4 Cerastium fontanum    Cerastium fontanum    Cerastium     Caryophyllaceae
 5 Epilobium hirsutum    Epilobium hirsutum    Epilobium     Onagraceae     
 6 Festuca arundinacea   Festuca rubra         Festuca       Poaceae        
 7 Festuca rubra         Festuca rubra         Festuca       Poaceae        
 8 Festuca rubra agg.    Festuca rubra         Festuca       Poaceae        
 9 Holcus lanatus        Holcus lanatus        Holcus        Poaceae        
10 Hypochoeris radicata  Hypochaeris radicata  Hypochaeris   Asteraceae     
# … with 16 more rows
…
Selecting columns

The command select is used to select only certain columns. Because we do not need all the 14 columns, we are going to trim the data and overwrite it.

The “pipe” command %>% (Ctrl+Shift+M) takes the tibble on the left as the input for the function on the right: func(x) is equivalent to x %>% func(). When writing code for a long pipeline, put each command in its own line, ending with the pipe. This allows to add/remove parts of the pipeline quickly, as well as allow to have inline comments to document the code.

dt <- dt %>% select(label, treatment, country, `species name`, 
                    `Biomass (g dryweight)`, timing)
dt

# A tibble: 10,480 × 6
   label    treatment country `species name` `Biomass (g dryweight)` timing
   <chr>    <chr>     <chr>   <chr>                            <dbl> <chr> 
 1 C-12478i C         BE      community                         30.4 res   
 2 C-12i    C         BE      community                         41.1 res   
 3 C-13478i C         BE      community                         28.6 res   
 4 C-134abi C         BE      community                         52.3 res   
 5 C-13567j C         BE      community                        103.  res   
 6 C-138acj C         BE      community                         76.4 res   
 7 C-147bdi C         BE      community                         46.1 res   
 8 C-17i    C         BE      community                         70.3 res   
 9 C-23568j C         BE      community                         64.5 res   
10 C-2357cj C         BE      community                         79.2 res   
# … with 10,470 more rows
…
Renaming columns

To make column names shorter or easier to type, use rename

dt <- dt %>% 
  rename(biomass = `Biomass (g dryweight)`, 
         species_name = `species name`)
dt

# A tibble: 10,480 × 6
   label    treatment country species_name biomass timing
   <chr>    <chr>     <chr>   <chr>          <dbl> <chr> 
 1 C-12478i C         BE      community       30.4 res   
 2 C-12i    C         BE      community       41.1 res   
 3 C-13478i C         BE      community       28.6 res   
 4 C-134abi C         BE      community       52.3 res   
 5 C-13567j C         BE      community      103.  res   
 6 C-138acj C         BE      community       76.4 res   
 7 C-147bdi C         BE      community       46.1 res   
 8 C-17i    C         BE      community       70.3 res   
 9 C-23568j C         BE      community       64.5 res   
10 C-2357cj C         BE      community       79.2 res   
# … with 10,470 more rows
…
